[
	{
	"name": "product1",
	"countryOfOrigin": "DE",
	"price": 123.50,
	"isFragile": true,
	"timesPurchased": 150
	},
	{
	"name": "product2",
	"countryOfOrigin": "DE",
	"price": 45,
	"isFragile": false,
	"timesPurchased": 1241
	},
	{
	"name": "product3",
	"countryOfOrigin": "ES",
	"price": 13,
	"isFragile": false,
	"timesPurchased": 772
	}
]